^C:\USERS\WJUSTAND\SOURCE\REPOS\PROJECT1\PROJECT1\BRUGGEN.CPP|C:\USERS\WJUSTAND\SOURCE\REPOS\PROJECT1\PROJECT1\MAIN.CPP
C:\USERS\WJUSTAND\SOURCE\REPOS\PROJECT1\PROJECT1\X64\DEBUG\VC141.PDB
C:\USERS\WJUSTAND\SOURCE\REPOS\PROJECT1\PROJECT1\X64\DEBUG\VC141.IDB
C:\USERS\WJUSTAND\SOURCE\REPOS\PROJECT1\PROJECT1\X64\DEBUG\MAIN.OBJ
C:\USERS\WJUSTAND\SOURCE\REPOS\PROJECT1\PROJECT1\X64\DEBUG\BRUGGEN.OBJ
^C:\USERS\WJUSTAND\SOURCE\REPOS\PROJECT1\PROJECT1\MAIN.CPP
C:\USERS\WJUSTAND\SOURCE\REPOS\PROJECT1\PROJECT1\X64\DEBUG\VC141.PDB
^C:\USERS\WJUSTAND\SOURCE\REPOS\PROJECT1\PROJECT1\BRUGGEN.CPP
C:\USERS\WJUSTAND\SOURCE\REPOS\PROJECT1\PROJECT1\X64\DEBUG\VC141.PDB
C:\USERS\WJUSTAND\SOURCE\REPOS\PROJECT1\PROJECT1\X64\DEBUG\VC141.IDB
C:\USERS\WJUSTAND\SOURCE\REPOS\PROJECT1\PROJECT1\X64\DEBUG\BRUGGEN.OBJ
